r-pyhton-exercise-shreyakolte
…
 when you only need to use the function one or twice, you can call the function/dataset through the notation package::functionname

library(DMwR2)

Registered S3 method overwritten by 'quantmod':
  method            from
  as.zoo.data.frame zoo 

Now you can use any function or dataset provided in DMwR2 by referencing its name directly.

data(algae) # load algae dataset
algae  

# A tibble: 200 × 18
   season size  speed   mxPH  mnO2    Cl    NO3   NH4  oPO4   PO4  Chla    a1
   <fct>  <fct> <fct>  <dbl> <dbl> <dbl>  <dbl> <dbl> <dbl> <dbl> <dbl> <dbl>
 1 winter small medium  8      9.8  60.8  6.24  578   105   170   50      0  
 2 spring small medium  8.35   8    57.8  1.29  370   429.  559.   1.3    1.4
 3 autumn small medium  8.1   11.4  40.0  5.33  347.  126.  187.  15.6    3.3
 4 spring small medium  8.07   4.8  77.4  2.30   98.2  61.2 139.   1.4    3.1
 5 autumn small medium  8.06   9    55.4 10.4   234.   58.2  97.6 10.5    9.2
 6 winter small high    8.25  13.1  65.8  9.25  430    18.2  56.7 28.4   15.1
 7 summer small high    8.15  10.3  73.2  1.54  110    61.2 112.   3.2    2.4
 8 autumn small high    8.05  10.6  59.1  4.99  206.   44.7  77.4  6.9   18.2
 9 winter small medium  8.7    3.4  22.0  0.886 103.   36.3  71    5.54  25.4
10 winter small high    7.93   9.9   8    1.39    5.8  27.2  46.6  0.8   17  
# ℹ 190 more rows
# ℹ 6 more variables: a2 <dbl>, a3 <dbl>, a4 <dbl>, a5 <dbl>, a6 <dbl>,
#   a7 <dbl>
…
install.packages("tibble")

Installing package into '/cloud/lib/x86_64-pc-linux-gnu-library/4.3'
(as 'lib' is unspecified)

                                                                  library(tibble)

CREATE A TIBBLE:

my.tibble <- tibble(TempCels = sample(-10:40, size=100, replace=TRUE), 
                    TempFahr = TempCels*9/5+32,
                    Location = rep(letters[1:2], each=50))
my.tibble

# A tibble: 100 × 3
   TempCels TempFahr Location
      <int>    <dbl> <chr>   
 1       16     60.8 a       
 2       -5     23   a       
 3       31     87.8 a       
 4       -4     24.8 a       
 5        7     44.6 a       
 6       -3     26.6 a       
 7       12     53.6 a       
 8       25     77   a       
 9      -10     14   a       
10       25     77   a       
# ℹ 90 more rows
…
library(palmerpenguins)
data(penguins)
dim(penguins)

[1] 344   8

class(penguins)

[1] "tbl_df"     "tbl"        "data.frame"

penguins

# A tibble: 344 × 8
   species island    bill_length_mm bill_depth_mm flipper_length_mm body_mass_g
   <fct>   <fct>              <dbl>         <dbl>             <int>       <int>
 1 Adelie  Torgersen           39.1          18.7               181        3750
 2 Adelie  Torgersen           39.5          17.4               186        3800
 3 Adelie  Torgersen           40.3          18                 195        3250
 4 Adelie  Torgersen           NA            NA                  NA          NA
 5 Adelie  Torgersen           36.7          19.3               193        3450
 6 Adelie  Torgersen           39.3          20.6               190        3650
 7 Adelie  Torgersen           38.9          17.8               181        3625
 8 Adelie  Torgersen           39.2          19.6               195        4675
 9 Adelie  Torgersen           34.1          18.1               193        3475
10 Adelie  Torgersen           42            20.2               190        4250
# ℹ 334 more rows
# ℹ 2 more variables: sex <fct>, year <int>

CONVERT A DATAFRAME INTO A TIBBLE

pe <-as_tibble(penguins)
class(pe)

[1] "tbl_df"     "tbl"        "data.frame"

pe

# A tibble: 344 × 8
   species island    bill_length_mm bill_depth_mm flipper_length_mm body_mass_g
   <fct>   <fct>              <dbl>         <dbl>             <int>       <int>
 1 Adelie  Torgersen           39.1          18.7               181        3750
 2 Adelie  Torgersen           39.5          17.4               186        3800
 3 Adelie  Torgersen           40.3          18                 195        3250
 4 Adelie  Torgersen           NA            NA                  NA          NA
 5 Adelie  Torgersen           36.7          19.3               193        3450
 6 Adelie  Torgersen           39.3          20.6               190        3650
 7 Adelie  Torgersen           38.9          17.8               181        3625
 8 Adelie  Torgersen           39.2          19.6               195        4675
 9 Adelie  Torgersen           34.1          18.1               193        3475
10 Adelie  Torgersen           42            20.2               190        4250
# ℹ 334 more rows
# ℹ 2 more variables: sex <fct>, year <int>
…
filter() select a subset of rows.

install.packages("dplyr")

Installing package into '/cloud/lib/x86_64-pc-linux-gnu-library/4.3'
(as 'lib' is unspecified)

library(dplyr)

Select bill lengths and widths of species Adelie:

select(filter(pe, species=="Adelie"), bill_length_mm, bill_depth_mm)

# A tibble: 152 × 2
   bill_length_mm bill_depth_mm
            <dbl>         <dbl>
 1           39.1          18.7
 2           39.5          17.4
 3           40.3          18  
 4           NA            NA  
 5           36.7          19.3
 6           39.3          20.6
 7           38.9          17.8
 8           39.2          19.6
 9           34.1          18.1
10           42            20.2
# ℹ 142 more rows

filter(select(pe, bill_length_mm, bill_depth_mm, species), species=="Adelie")

# A tibble: 152 × 3
   bill_length_mm bill_depth_mm species
            <dbl>         <dbl> <fct>  
 1           39.1          18.7 Adelie 
 2           39.5          17.4 Adelie 
 3           40.3          18   Adelie 
 4           NA            NA   Adelie 
 5           36.7          19.3 Adelie 
 6           39.3          20.6 Adelie 
 7           38.9          17.8 Adelie 
 8           39.2          19.6 Adelie 
 9           34.1          18.1 Adelie 
10           42            20.2 Adelie 
# ℹ 142 more rows

pe

# A tibble: 344 × 8
   species island    bill_length_mm bill_depth_mm flipper_length_mm body_mass_g
   <fct>   <fct>              <dbl>         <dbl>             <int>       <int>
 1 Adelie  Torgersen           39.1          18.7               181        3750
 2 Adelie  Torgersen           39.5          17.4               186        3800
 3 Adelie  Torgersen           40.3          18                 195        3250
 4 Adelie  Torgersen           NA            NA                  NA          NA
 5 Adelie  Torgersen           36.7          19.3               193        3450
 6 Adelie  Torgersen           39.3          20.6               190        3650
 7 Adelie  Torgersen           38.9          17.8               181        3625
 8 Adelie  Torgersen           39.2          19.6               195        4675
 9 Adelie  Torgersen           34.1          18.1               193        3475
10 Adelie  Torgersen           42            20.2               190        4250
# ℹ 334 more rows
# ℹ 2 more variables: sex <fct>, year <int>

pe[pe$species=='Adelie', c("bill_length_mm", "bill_depth_mm")]

# A tibble: 152 × 2
   bill_length_mm bill_depth_mm
            <dbl>         <dbl>
 1           39.1          18.7
 2           39.5          17.4
 3           40.3          18  
 4           NA            NA  
 5           36.7          19.3
 6           39.3          20.6
 7           38.9          17.8
 8           39.2          19.6
 9           34.1          18.1
10           42            20.2
# ℹ 142 more rows

subset(pe, pe$species=='Adelie', c("bill_length_mm", "bill_depth_mm"))

# A tibble: 152 × 2
   bill_length_mm bill_depth_mm
            <dbl>         <dbl>
 1           39.1          18.7
 2           39.5          17.4
 3           40.3          18  
 4           NA            NA  
 5           36.7          19.3
 6           39.3          20.6
 7           38.9          17.8
 8           39.2          19.6
 9           34.1          18.1
10           42            20.2
# ℹ 142 more rows

select(pe, bill_length_mm, bill_depth_mm, species) |> filter(species=="Adelie")

# A tibble: 152 × 3
   bill_length_mm bill_depth_mm species
            <dbl>         <dbl> <fct>  
 1           39.1          18.7 Adelie 
 2           39.5          17.4 Adelie 
 3           40.3          18   Adelie 
 4           NA            NA   Adelie 
 5           36.7          19.3 Adelie 
 6           39.3          20.6 Adelie 
 7           38.9          17.8 Adelie 
 8           39.2          19.6 Adelie 
 9           34.1          18.1 Adelie 
10           42            20.2 Adelie 
# ℹ 142 more rows

EXERCISE:

Pass the result from the filter to the select function and achieve the same result as shown above.

filter(pe, species=="Adelie") |> select(bill_length_mm, bill_depth_mm, species)

# A tibble: 152 × 3
   bill_length_mm bill_depth_mm species
            <dbl>         <dbl> <fct>  
 1           39.1          18.7 Adelie 
 2           39.5          17.4 Adelie 
 3           40.3          18   Adelie 
 4           NA            NA   Adelie 
 5           36.7          19.3 Adelie 
 6           39.3          20.6 Adelie 
 7           38.9          17.8 Adelie 
 8           39.2          19.6 Adelie 
 9           34.1          18.1 Adelie 
10           42            20.2 Adelie 
# ℹ 142 more rows
…
